<svg width="20" height="20" viewBox="0 0 20 20" fill="none" xmlns="http://www.w3.org/2000/svg">
<path fill-rule="evenodd" clip-rule="evenodd" d="M11 4C11 3.44772 10.5523 3 10 3C9.44772 3 9 3.44772 9 4V8H5C4.44772 8 4 8.44772 4 9C4 9.55228 4.44772 10 5 10H9V14C9 14.5523 9.44772 15 10 15C10.5523 15 11 14.5523 11 14V10H15C15.5523 10 16 9.55228 16 9C16 8.44772 15.5523 8 15 8H11V4Z" fill="#282F36"/>
</svg>
