<svg width="20" height="20" viewBox="0 0 20 20" fill="none" xmlns="http://www.w3.org/2000/svg">
<path fill-rule="evenodd" clip-rule="evenodd" d="M7.74112 2C6.88027 2 6.10615 2.4979 5.78643 3.25722L5.33333 4H2C0.837295 4 0 4.89543 0 6V16C0 17.1046 0.837295 18 2 18H18C19.1627 18 20 17.1046 20 16V6C20 4.89543 19.1627 4 18 4H14.6667L14.2136 3.25722C13.8939 2.4979 13.1197 2 12.2589 2H7.74112ZM10 14.6667C12.2091 14.6667 14 12.8758 14 10.6667C14 8.45753 12.2091 6.66667 10 6.66667C7.79086 6.66667 6 8.45753 6 10.6667C6 12.8758 7.79086 14.6667 10 14.6667ZM18 7C18 7.55228 17.5523 8 17 8C16.4477 8 16 7.55228 16 7C16 6.44772 16.4477 6 17 6C17.5523 6 18 6.44772 18 7Z" fill="#4F4F4F"/>
</svg>
