<?xml version="1.0" encoding="utf-8"?>
<!-- Generator: Adobe Illustrator 22.1.0, SVG Export Plug-In . SVG Version: 6.00 Build 0)  -->
<svg version="1.1" id="Слой_1" xmlns="http://www.w3.org/2000/svg" xmlns:xlink="http://www.w3.org/1999/xlink" x="0px" y="0px"
	 viewBox="0 0 9.2 9.2" style="enable-background:new 0 0 9.2 9.2;" xml:space="preserve">
<path d="M8.9,8.9c0.4-0.4,0.4-1,0-1.4L6,4.6l2.9-2.9c0.4-0.4,0.4-1,0-1.4c-0.4-0.4-1-0.4-1.4,0L4.6,3.2L1.7,0.3
	c-0.4-0.4-1-0.4-1.4,0s-0.4,1,0,1.4l2.9,2.9L0.3,7.4c-0.4,0.4-0.4,1,0,1.4c0.4,0.4,1,0.4,1.4,0L4.6,6l2.9,2.9
	C7.8,9.3,8.5,9.3,8.9,8.9z"/>
</svg>
