<svg width="13" height="13" viewBox="0 0 13 13" fill="none" xmlns="http://www.w3.org/2000/svg">
<path d="M11.7 0H1.3C0.5954 0 0 0.636037 0 1.38873V8.79803C0 9.55072 0.5954 10 1.3 10H6.93333L10 12.9642C10.0834 12.9297 10 10 10 10H11.7C12.4046 10 13 9.55072 13 8.79803V1.38873C13 0.636037 12.4046 0 11.7 0Z"/>
</svg>
